{
  "content": [
    {
      "id": 1,
      "task_name": "ONNX转换任务",
      "base_model_framework": "PyTorch",
      "base_model_name": "鸢尾花分类模型",
      "base_model_version": "v1.0.0",
      "encryption_model_name": "鸢尾花分类模型_onnx",
      "encryption_model_version": "v1.1.0",
      "status": "Succeeded",
      "creator": {
        "username": "weizhengdi.zh"
      },
      "created_at": "2022-10-26 13:13:57"
    },
    {
      "id": 2,
      "task_name": "ONNX转换任务",
      "base_model_framework": "PyTorch",
      "base_model_name": "鸢尾花分类模型",
      "base_model_version": "v1.0.0",
      "encryption_model_name": "鸢尾花分类模型_onnx2",
      "encryption_model_version": "v1.2.0",
      "status": "Failed",
      "creator": {
        "username": "weizhengdi.zh"
      },
      "created_at": "2022-10-27 13:13:57"
    }
  ],
  "pageable": {
    "sort": {
      "sorted": true,
      "unsorted": false,
      "empty": false
    },
    "offset": 0,
    "pageNumber": 0,
    "pageSize": 1,
    "unpaged": false,
    "paged": true
  },
  "totalElements": 6,
  "last": false,
  "totalPages": 6,
  "size": 1,
  "number": 0,
  "numberOfElements": 1,
  "first": true,
  "sort": {
    "sorted": true,
    "unsorted": false,
    "empty": false
  },
  "empty": false
}